﻿Issue key,Issue id,Summary,Custom field (Requested by),Custom field (Customer)
DM-1831,45970,Update V3 sync CustomerTag script to prevent duplicate foreign key failures,Data Management,Cube
DM-1830,45968,Add Inventory Report setting to CDI template + process,Engineering,Cube
DM-1829,45962,Update Sector tag names in CDI template for 3.1,Data Management,Cube
DM-1828,45955,Release requirement 100924 to PROTO,Experts,Cube
DM-1827,45950,Add fines to MetLife DEMO environment,Experts,MetLife
DM-1826,45947,Release additional requirements to PROTO,Experts,Cube
DM-1824,45901,DBS Custom Demo - Subscription updates,Champions,DBS
DM-1823,45884,Add missing rules to exclusions,Experts,All
DM-1822,45879,Change Business Record Tag for CIT,Champions,CIT
DM-1821,45876,"Delta Report - Jan 01, 2018 to current date",Champions,Citi
DM-1820,45872,DB Custom Report Required,Customer Delivery,Deutsche Bank
DM-1819,45870,Benchmark load testing ,Engineering,Cube
DM-1818,45864,V1 Report on any mappings to the Country Guernsey,Researchers,Cube
DM-1817,45850,Script delete Steve Gosch from V1,Service Delivery,CIT
DM-1816,45842,New Demo Entity MetLife,Customer Delivery,MetLife
DM-1761,45486,Activity Report - April,Data Management,Cube
DM-1661,44701,Activity Report - March,Data Management,Cube
DM-1813,45829,Reset passwords on all peripheral RDS environments ,Service Delivery,All
DM-1712,45110,Add additional fines to Insight import script,Experts,Cube
DM-1811,45811,Add customer tables to Redact Script,Data Management,Cube
DM-1785,45609,Add Data Management to Business Function value for CR's,Data Management,Cube
DM-1683,44872,Add mappings for Radar articles to Insight import script,Experts,Cube
DM-1704,45042,Add missing rules to exclusions,Data Management,Cube
DM-1652,44563,Add new regulatory fines to V3 insight article script,Experts,Cube
DM-1814,45830,Add POC passwords into KeePass,Service Delivery,Cube
DM-1805,45783,Weekly Non Compliance Report 4th June 2018,Champions,All
DM-1632,44408,Add Procedure to Scripting Checklist,Data Management,Cube
DM-1803,45768,Weekly Non Compliance Report 28th May 2018,Champions,All
DM-1802,45760,Report on CIT BR's without USA drivers,Champions,CIT
DM-1815,45831,Add record systems to BPS-POC,Customer Delivery,BNP Paribas
DM-1628,44370,Add Rejection tab to Research KPI report,Researchers,Cube
DM-1733,45225,Add requirement mappings to Insight articles,Experts,Cube
DM-1649,44537,Add requirements by Language to Research KPI reports,Researchers,Cube
DM-1797,45718,BIB-POC Upload Tranche 2,Champions,Barclays Investment Bank
DM-1796,45713,Import CIT Business Records - Batch II,Champions,CIT
DM-1781,45593,Add Rule Notes to Deuschebank UAT + PROD,Champions,Deutsche Bank
DM-1794,45700,Redress duplicate Barclays rules created in Jan 2017,Data Management,Barclays
DM-1630,44386,Adjust and upload V3 scripts needed for PROD deployment,Engineering,Cube
DM-1792,45664,BIB keyword search,Champions,Barclays Investment Bank
DM-1729,45207,Agree on SSIS prefix terminology and document on Confluence,Data Management,Cube
DM-1692,44967,Archive notifications for Kathleen before 1st Jan 2018,Champions,Citi
DM-1807,45785,Barbados Requirements for CCM,Engineering,Cube
DM-1787,45631,Lookup Categories for BIB inventory data,Champions,Barclays Investment Bank
DM-1639,44465,BIC POC Set Up,Customer Delivery,Barclays
DM-1730,45208,BNP Paribas POC - redact and upgrade to V3,Customer Delivery,BNP Paribas
DM-1790,45645,BNP upload,Customer Delivery,BNP Paribas
DM-1782,45602,Business Records Review,Champions,Barclays Investment Bank
DM-1637,44434,CDI import raising errors incorrectly,Data Management,Cube
DM-1658,44638,Compliance Consolidated report with duplicate categories,Data Management,Cube
DM-1706,45073,Create a report on DM stats for the last 6 months,Data Management,Cube
DM-1699,45006,Create a report on incomplete Drivers and Exclusions,Data Management,Cube
DM-1778,45571,Tag BR's in BIB-POC environment,Champions,Barclays Investment Bank
DM-1789,45562,Jurisdictions in Belgium,Researchers,Cube
DM-1716,45132,Create a script to populate RDS users with their corresponding Identity Server ID,Engineering,Cube
DM-1776,45557,Update existing SSIS packages to be in line with the naming convention,Data Management,Cube
DM-1764,45497,Create a solution to sync requirements from RM to POC,Data Management,Cube
DM-1786,45612,Create DM SLA document for wider audience,Data Management,Cube
DM-1667,44737,Create Expert stats KPI job against RM database,Experts,Cube
DM-1772,45537,Weekly Non Compliance Report 21st May 2018,Champions,All
DM-1718,45157,Create redacted database,Engineering,Cube
DM-1770,45534,BIB report request - Format and Accessibility requirements,Champions,Barclays Investment Bank
DM-1680,44835,Custom Report Request - Delta (Historic Audit Report) Report,Champions,Citi
DM-1659,44646,Custom Report Request - Delta Report,Champions,Citi
DM-1767,45500,Store excluded data as part of V3 Exclusions,Data Management,Cube
DM-1759,45471,DB - German Leg Gap requirements - UAT,Experts,Deutsche Bank
DM-1722,45174,DB - US State Requirement Exclusion,Customer Delivery,Deutsche Bank
DM-1684,44902,DB Demo - Inventory - April 19,Champions,Deutsche Bank
DM-1698,45005,DB Leg Gap - add additional information to several files,Researchers,Deutsche Bank
DM-1689,44946,DB Leg GAP 2 - Redo Kazakhstan report,Researchers,Deutsche Bank
DM-1694,44982,"DB Leg GAP 2 - Redo Portugal, Luxembourg, Mexico, Spain, Germany",Researchers,Deutsche Bank
DM-1682,44868,DB Leg GAP 2 - Redo Sweden report,Researchers,Deutsche Bank
DM-1723,45177,DB POC Requirements Release,Experts,Deutsche Bank
DM-1793,45679,DB Research - Requirement Rules,Researchers,Deutsche Bank
DM-1631,44397,Delete regulator data from RDS,Researchers,Cube
DM-1795,45704,"Delta Report - Jan 01, 2018 to current date",Champions,Citi
DM-1720,45171,Deutsche Inventory test - DTK-POC,Champions,Deutsche Bank
DM-1753,45424,Weekly Non Compliance Report 14th May 2018,Champions,All
DM-1664,44724,Document Customer Auto Exclusions in Confluence,Data Management,Cube
DM-1769,45532,Document Policy Import Process,Data Management,Cube
DM-1676,44796,Document weekly reports process in confluence,Data Management,Cube
DM-1749,45399, Barclays Regulator Handbook search,Champions,Barclays
DM-1812,45821,ECOMM_LEG_GAP_AU Albana Rule types,Researchers,Deutsche Bank
DM-1691,44966,Employee Records - Country Retention schedule updates,Customer Delivery,Barclays
DM-1739,45263,Existing Report Re-Run,Data Management,Cube
DM-1741,45286,False positive Category errors in CDI import,Data Management,Cube
DM-1775,45550,Final 2.14 Requirements Release - All,Experts,All
DM-1710,45101,FW: DB - Exclusion of Limitations Request,Customer Delivery,Deutsche Bank
DM-1657,44593,General Requirements Release,Experts,All
DM-1693,44980,Import Data job is not flagging correctly BR,Data Management,Cube
DM-1738,45262,Re-run Delta Report Citi,Champions,Citi
DM-1737,45250,Weekly Non Compliance Report 7th May 2018,Champions,All
DM-1750,45400,Import Deutsche bank + InfoSec to DEMO,Customer Delivery,Deutsche Bank
DM-1734,45228,Urgent Citi Request for Data,Champions,Citi
DM-1700,45011,Investigate rules deleted from CategoryRule table,Engineering,Cube
DM-1709,45099,Investigate why Internal business records are not mapped to Netherlands and Belgium,Customer Delivery,HSBC
DM-1754,45425,JPMC Demo - Create and map CUBE categories,Customer Delivery,JPMC
DM-1740,45282,JPMC Demo Entity,Customer Delivery,JPMC
DM-1748,45395,JPMC Demo Prep - keyword search request,Champions,JPMC
DM-1728,45206,Tidy up Cube 2.0 integration services project in v3.1,Data Management,Cube
DM-1727,45202,Report on CIT categories without Global rule,Champions,CIT
DM-1726,45200,Update Citi Suboptimal report with rule inheritance,Champions,Citi
DM-1757,45467,Load Testing Scenarios - Duplicate Categories,Engineering,Cube
DM-1742,45289,Load Testing Scenarios - Duplicate Requirements,Engineering,Cube
DM-1804,45777,Lookup for Creation and Submissions report,Champions,Citi
DM-1758,45470,Map additional requirements in JPMC DEMO environment,Experts,JPMC
DM-1808,45789,Missing ImportRMExclusion.dtsx breaking build,Data Management,Cube
DM-1774,45549,Mock up of new CR structure,Data Management,Cube
DM-1719,45159,Upgrade BIB-POC to V3,Customer Delivery,Barclays Investment Bank
DM-1779,45575,MRC Report - wrongly classified countries,Champions,Citi
DM-1768,45501,New DEMO customer entity DBS,Customer Delivery,DBS
DM-1736,45224,New Trigger Event to be added to CUBE,Experts,Cube
DM-1655,44574,Octopus Deploy > 3-DATA > SQL-Scripts-PreImport Error,Engineering,Cube
DM-1714,45126,Weekly Non Compliance Report 30th April 2018,Champions,All
DM-1810,45806,Populate customer and requested by fields on DM JIRA board,Data Management,Cube
DM-1629,44380,Populate V3 sync tables on TEST,Engineering,Cube
DM-1711,45102,Barclays IB - Data Upload Request (BIB-POC),Champions,Barclays Investment Bank
DM-1788,45637,Prod RDS password resets,Service Delivery,Cube
DM-1717,45139,Provide updated Research KPI report for Sam,Researchers,Cube
DM-1762,45490,Provide updated Research KPI report for Sam - April 2018,Researchers,Cube
DM-1703,45025,RDS requirement count with filters - for CCM,Engineering,Cube
DM-1687,44929,RDS requirement count with filters - for CCM,Engineering,Cube
DM-1633,44410,RDS requirement count with filters - for CCM,Engineering,Cube
DM-1666,44732,Redact Prod db for CUBETWO-6773,Engineering,Cube
DM-1809,45795,Redact Test Database,Data Management,Cube
DM-1702,45023,Suboptimal report for Citi,Champions,Citi
DM-1801,45743,Re-import BNP Paribas to BPS-POC,Customer Delivery,BNP Paribas
DM-1755,45455,Release and map requirements to Info Sec in DEMO,Customer Delivery,Deutsche Bank
DM-1783,45604,Release Policy requirements to DEMO - DBS prep,Experts,DBS
DM-1799,45725,Release USA and UK requirements to UAT,Experts,All
DM-1697,45003,Citi+HSBC Limitations exclusion in V3,Data Management,Citi
DM-1686,44925,Remap rules from root categories after V3 deployment,Engineering,Cube
DM-1695,45001,Citi Capital Markets exclusions in V3,Data Management,Citi
DM-1751,45422,Remove category jurisdiction from limitation exclusions script,Data Management,Cube
DM-1732,45220,Remove redundant redact script,Data Management,Cube
DM-1806,45784,Report for Inventory,Champions,CIT
DM-1673,44764,Report on Categories missing from Schedules,Engineering,Cube
DM-1690,44963,Weekly Non Compliance Report 23rd April 2018,Champions,All
DM-1642,44483,Report on locations for task 103112,Engineering,Cube
DM-1784,45606,Report Reqeust - Average Words.xlsx,Researchers,Cube
DM-1747,45373,Report Request - Business Record drivers,Champions,Cube
DM-1685,44922,Custom report CUBE categories missing from Barclays Ireland schedule,Customer Delivery,Barclays
DM-1777,45559,Report request - Duplicate requirements,Researchers,Cube
DM-1701,45018,Report Request - Indefinite Retention,Researchers,Cube
DM-1713,45125,Report Request - Keyword Search of Requirements,Experts,Cube
DM-1765,45498,Report Request - Liberia FS regulations,Experts,Cube
DM-1651,44562,Report Request - Retention with an Event and no Period,Researchers,Cube
DM-1679,44833,Report Request - CIT Bank Profiling Analysis,Experts,CIT
DM-1678,44817,Weekly Non Compliance Report 16th April 2018,Champions,All
DM-1677,44797,Compliance before and after for V3 requirements release,Data Management,Cube
DM-1800,45736,Report to show all Jurisdictions for DeuscheBank,Customer Delivery,Deutsche Bank
DM-1735,45237,Requirement Report for CCM and Experts,Experts,Cube
DM-1760,45481,Requirements release - Germany all customers,Experts,All
DM-1752,45423,Review Bermuda exclusions,Data Management,Cube
DM-1672,44756,Move Sharepoint documentation to Confluence,Data Management,Cube
DM-1671,44754,Test the impact of adding Capital Markets to Barclays and HSBC,Champions,Barclays
DM-1756,45465,Run Delta category report for Deutsche Bank on DTK-POC,Customer Delivery,Deutsche Bank
DM-1715,45128,Run reports to compare RM against RDS,Data Management,Cube
DM-1773,45540,Run reports to compare RM against RDS ,Data Management,Cube
DM-1791,45659,Run RM deployment scripts on POC environments,Data Management,Cube
DM-1665,44725,Citi Customer Report Runs,Champions,Citi
DM-1780,45582,Run script to upload new rules for Deutsche Bank in Prod,Champions,Deutsche Bank
DM-1663,44709,Weekly Non Compliance Report 9th April 2018,Champions,All
DM-1662,44706,Barclays report request - Employee One HR rules,Champions,Barclays
DM-1696,45002,Run script to upload new rules for Deutsche Bank in UAT,Customer Delivery,Deutsche Bank
DM-1724,45196,Run State and Limitation Exclusions for DTK-POC,Customer Delivery,Deutsche Bank
DM-1523,43487,Self Service Reporting,Data Management,Cube
DM-1670,44753,Set release date in RM after requirements release,Engineering,Cube
DM-1721,45172,Soft-delete rules from UAT,Data Management,Barclays
DM-1646,44527,"Update ""UpdatedOn"" field for requirements changed by DM-1520",Data Management,Cube
DM-1654,44571,Upgrade CIT-POC to V3,Customer Delivery,CIT
DM-1653,44570,Raise a CR to update Citi CategoryExclusionbyCountry job,Data Management,Citi
DM-1725,45198,Update All Exclusion scripts for V3 - amend requirement type filter,Data Management,Cube
DM-1681,44867,Update BR script + source file in V3 sync,Data Management,Cube
DM-1660,44690,Update Category Exclusion Report,Data Management,Cube
DM-1771,45536,Update consolidated script for V3 exclusions,Data Management,Cube
DM-1638,44463,Update Controls tagging on PROTO,Champions,Global Banking Group PLC
DM-1705,45049,Update Drivers and Exclusions in V3 sync to optimize performance,Data Management,Cube
DM-1645,44523,Weekly Non Compliance Report 3rd April 2018,Champions,All
DM-1644,44496,Upload CIT applications list into the UI,Champions,CIT
DM-1643,44485,Citi Master Exclusions Report - add date of exclusion to manual exclusions tab,Champions,Citi
DM-1766,45499,Update Exclusions package in V3.1 sync,Data Management,Cube
DM-1641,44482,BIB Employees Records report request,Champions,Barclays Investment Bank
DM-1640,44478,ATEQ - 103043 BIB hard copy requirements report,Champions,Barclays Investment Bank
DM-1668,44738,Update Insight article import script,Engineering,Cube
DM-1743,45290,Update mappings on Insight radar articles,Experts,Cube
DM-1708,45098,Update password reset script,Service Delivery,Cube
DM-1636,44428,List of sources mapped to requirements in Citi environment,Champions,Citi
DM-1634,44412,Citi Custom Reports Request,Champions,Citi
DM-1707,45091,Update POC security stamp,Service Delivery,All
DM-1647,44529,Update PROTO insight article mapping and update V3 insight article script,Experts,Cube
DM-1675,44787,Update published dates in Insight article script,Experts,Cube
DM-1674,44775,Update Remap Business Records verification,Data Management,Cube
DM-1627,44369,Update Research KPI report to work from RM,Researchers,Cube
DM-1650,44560,Update V3 post deployment script to fix dashboard navigating to non-existing page,Engineering,Cube
DM-1746,45313,Upgrade DTK-POC to 3.0.1.5,Customer Delivery,Deutsche Bank
DM-1626,44368,"Add Rejected, Validated and Deleted requirements to Expert stats KPI report",Experts,Cube
DM-1625,44366,Update Expert stats KPI to work from RM,Data Management,Cube
DM-1624,44353,Release requirement 112953 to PROTOTYPE,Experts,Global Banking Group PLC
DM-1623,44348,Report on Barclays rules that were proposed in SVC-1357,Customer Delivery,Barclays
DM-1622,44346,Weekly Non Compliance Report 26th March 2018,Champions,All
DM-1635,44328,Import CIT BR's for Consumer_Banking > Retail_Banking.xlsx,Champions,CIT
DM-1620,44264,Previous Barclays Rule Proposal,Customer Delivery,Barclays
DM-1621,44261,V1 Import Job taking a long time in DM environments,Data Management,Cube
DM-1619,44229,Filter unchanged superseded requirements in V3 sync,Data Management,Cube
DM-1618,44223,Report on Regulator jurisdictions,Researchers,Cube
DM-1616,44215,General Release of Requirements,Experts,All
DM-1614,44210,Weekly Non Compliance Report 19th March 2018,Champions,All
DM-1613,44207,Create scripts to populate CBK-POC compliance cache table,Engineering,Citi
DM-1612,44190,Data Usage reports - Created Users by month,Champions,All
DM-1611,44189,POC-BIB Task removal,Champions,Barclays Investment Bank
DM-1610,44187,Data Usage reports - Inventory Locations,Champions,Barclays Investment Bank
DM-1609,44175,Import Citi KYC policy,Champions,Citi
DM-1608,44173,Update requirements release filtering logic,Data Management,Cube
DM-1607,44164,BIB inventory redress - PROD,Champions,Barclays Investment Bank
DM-1606,44150,BIB Data Upload Request,Champions,Barclays Investment Bank
DM-1605,44145,Update user and customer subscription script for V3,Data Management,Cube
DM-1604,44138,Know your customer policy requirements Report,Experts,Cube
DM-1603,44135,Update GBG reports on PROTO,Engineering,Global Banking Group PLC
DM-1602,44130,Inventory Report extracts,Champions,Barclays Investment Bank
DM-1601,44099,Update Scramble SSIS package and script with V3 schema changes,Data Management,Cube
DM-1600,44098,Update Redact SSIS package and script with V3 schema changes,Data Management,Cube
DM-1599,44097,Soft delete Exclusions and Drivers during V3 sync,Data Management,Cube
DM-1598,44094,Re-run reports to compare RDS against V1 - week 2nd April,Researchers,Cube
DM-1597,44092,Weekly Non Compliance Report 12th March 2018,Champions,All
DM-1596,44088,Requirement data model changes - sample demo,Researchers,Cube
DM-1595,44087,CUBE categories report,Researchers,Cube
DM-1594,44083,Activity Report - Feb,Data Management,Cube
DM-1593,44080,Suboptimal Report Request - Re-Run,Champions,Citi
DM-1592,44073,Extract Requirement information for Risk Appetite requirements,Experts,Cube
DM-1591,44066,Data Quality Reports - compare RM to RDS,Data Management,Cube
DM-1590,44065,Create a Dashboard for Activity Report,Data Management,Cube
DM-1589,44059,Release additional requirements to CBK-POC,Champions,Citi
DM-1588,44053,Create additional customers for load testing of compliance calc and indexing,Engineering,Cube
DM-1587,44038,Upload policy .pdf files to CBK-POC,Champions,Cube
DM-1586,44034,Update Redact Script,Data Management,Cube
DM-1585,44024,Retention rules - global extract,Customer Delivery,HSBC
DM-1584,44017,Add Risk Appetite policy to CBK-POC,Experts,Citi
DM-1583,44004,Re-run reports to compare RDS against V1 - week 5th March,Researchers,Cube
DM-1582,43991,Custom Report - Historic Rule Change Audit Report by Date,Champions,Citi
DM-1581,43988,Release MiFID II requirements to PROTOTYPE,Champions,Global Banking Group PLC
DM-1580,43971,Weekly Non Compliance Report 5th March 2018,Champions,All
DM-1579,43937,Delete Barclays rules via script,Customer Delivery,Barclays
DM-1578,43931,Improve performance of LegGAP file,Researchers,Cube
DM-1577,43924,Deploy to DTK-POC Connect API,Engineering,Deutsche Bank
DM-1576,43907,Upload Insider lending policy to CBK-POC,Champions,Citi
DM-1575,43900,Citi GDPR rule updates,Experts,Citi
DM-1574,43881,DB Leg GAP - part 2,Researchers,Deutsche Bank
DM-1573,43850,Identify cause of requirements with different sector and sector business type in V1,Champions,Cube
DM-1572,43839,Weekly Non Compliance Report 26th February 2018,Champions,All
DM-1571,43833,Test upgrading CBK-POC,Engineering,Citi
DM-1570,43792,Update CubeUserTag table with Customer's sector tags,Engineering,All
DM-1569,43791,Report RM requirements that can be released for QA,Engineering,Cube
DM-1568,43790,Update Redact Script,Data Management,Cube
DM-1567,43773,Change requirement status filter in RM > RDS sync process,Experts,Cube
DM-1566,43771,Redacted Database,Engineering,Cube
DM-1565,43761,Missing rows of CategoryRule  in schema 3.0,Data Management,Cube
DM-1564,43755,Weekly Non Compliance Report 19th February 2018,Champions,All
DM-1562,43752,Redact USG-POC environment,Customer Delivery,UBS
DM-1561,43741,Flag requirements as released to RDS after V3 requirements release,Data Management,Cube
DM-1560,43737,Add EffectiveCategoryRule to CDI import,Engineering,Cube
DM-1559,43727,Upgrade BIB-POC to 2.14,Champions,Barclays Investment Bank
DM-1558,43726,BIB-POC Data Upload Request,Champions,Barclays Investment Bank
DM-1556,43706,"Deutsche bank ""Electronic Communications"" LEG GAP",Researchers,Deutsche Bank
DM-1555,43699,DTK Report,Customer Delivery,Deutsche Bank
DM-1554,43693,DM for UBS,Customer Delivery,UBS
DM-1557,43692,Add New Countries to be added to V1 and RDS,Experts,Cube
DM-1551,43689,Report Request: BIB and Barclays Group Requirement Coverage 2018,Champions,Barclays
DM-1550,43674,Update V3 inventory import to read LocationType from file,Data Management,Cube
DM-1549,43664,Checklist for CR review,Data Management,Cube
DM-1548,43660,Gather requirements and scope for Barclays to BIB rule sync,Champions,Barclays Investment Bank
DM-1547,43656,Update Integration services project in 2.14 branch,Data Management,Cube
DM-1546,43636,Import inventory data to DTK-POC,Champions,Deutsche Bank
DM-1545,43634,Upgrade DTK-POC to 2.14,Customer Delivery,Deutsche Bank
DM-1544,43633,Create a script to upload new rules for Deutsche Bank,Customer Delivery,Deutsche Bank
DM-1543,43624,Upgrade CBK-POC to 3.0.0.826,Champions,Citi
DM-1542,43622,Weekly Non Compliance Report 12th February 2018,Champions,All
DM-1541,43619,Add Scramble.sql to SSIS package,Data Management,Cube
DM-1540,43618,Document Scramble.sql on a wiki page,Data Management,Cube
DM-1539,43596,Compliance Calc in dtk-poc,Customer Delivery,Deutsche Bank
DM-1538,43595,Compare DB Reports,Customer Delivery,Deutsche Bank
DM-1537,43569,Document V3 RM>RDS sync process,Engineering,Cube
DM-1536,43560,Weekly Non Compliance Report 5th February 2018,Champions,All
DM-1535,43553,Upgrade PROTOTYPE to same version as CBK-POC,Champions,Global Banking Group PLC
DM-1534,43546,RM sync - add step to update BR mappings during the sync,Data Management,Cube
DM-1533,43545,RM sync - add logic around Superseded requirements,Data Management,Cube
DM-1532,43544,Review Test Log V3 - requirement release,Data Management,Cube
DM-1531,43532,Report on CIT BR and Category Mappings,Experts,CIT
DM-1530,43529,Update RemoveIncorrectTags.sql to soft-delete RSLs,Data Management,Cube
DM-1529,43526,Re-run reports to compare RDS against V1 - week 12th February,Researchers,Cube
DM-1528,43504,Regulator Review,Researchers,Cube
DM-1527,43503,Regulator to Requirement remapping,Researchers,Cube
DM-1526,43502,Regulator to Requirement mapping remapping,Researchers,Cube
DM-1525,43490,Design ETL for self service reporting,Data Management,Cube
DM-1524,43489,"Design, create and deploy fact tables and dimensions for self service platform",Data Management,Cube
DM-1798,45724,Upgrade SSE POC to v3,Customer Delivery,Swiss Re
DM-1522,43486,Ensure SSRS and SSAS are installed and accessible on CUBEDMSQL,Data Management,Cube
DM-1521,43473,Release additional requirements to CBK-POC - 25th January,Experts,Citi
DM-1520,43470,Add Requirement Jurisdictions in V1,Researchers,Cube
DM-1519,43458,Requirements with missing V1 jurisdictions - check audit,Researchers,Cube
DM-1518,43451,Weekly non compliance Report tabs required,Champions,Citi
DM-1517,43434,Verification for Remap_BR_Requirements script,Infrastructure,Cube
DM-1515,43406,Add new CDI Inventory import to 2.14.1,Data Management,Cube
DM-1514,43405,BIB inventory redress - BIB-POC,Champions,Barclays Investment Bank
DM-1513,43401,Remove BIB from the release process,Champions,Barclays Investment Bank
DM-1511,43375,"Requirements release BIB, Citi, HSBC, Barclays - All requirements",Champions,All
DM-1510,43364,Weekly Non Compliance Report 29th January 2018,Champions,All
DM-1509,43363,Add Chapter fields to CDI process for V3,Data Management,Cube
DM-1508,43358,Report Request - DM-1030 - Delta_CategoryRuleChanges (aka Historic Rule Change Audit Report),Champions,Citi
DM-1507,43354,Report Request - New US Fed requirements,Researchers,Cube
DM-1506,43353,Citi exclusions script picking up reincluded records,Data Management,Citi
DM-1505,43352,Add scripts to CubeOneData.dtsx package,Data Management,Cube
DM-1504,43347,Requirements with missing V1 jurisdictions,Experts,Cube
DM-1503,43325,Add a step to CustomerDataImport to create XID's for all customer entities during runtime,Data Management,Cube
DM-1502,43322,"Test requirements release BIB, Barclays, HSBC - All requriements",Champions,All
DM-1501,43317,HSBC - Global Records Category Report,Customer Delivery,HSBC
DM-1500,43316,Weekly Non Compliance Report 22nd January 2018,Champions,All
DM-1499,43315,Fix export tables process currently exporting -1 values for specific tables,RDI,Citi
DM-1498,43311,Document custom fields import on Confluence,Data Management,Cube
DM-1497,43309,Delete duplicate rules from compliance table,Engineering,All
DM-1516,43265,V1 - New Jurisdictions to be added to CUBE,Researchers,Cube
DM-1496,43261,Sync requirement 106475 to CBK-POC,Champions,Citi
DM-1495,43260,Tidy up active branches in DM repository,Data Management,Cube
DM-1494,43159,Extend the default subscription script for RDS v3 - Part 2,Engineering,Cube
DM-1493,43156,British Virgin Islands count as of 2017-09-19,Engineering,Cube
DM-1492,43142,Release additional requirements to CBK-POC,Experts,Citi
DM-1491,43141,Re-run reports to compare RDS against V1 - week 29th January,Researchers,Cube
DM-1490,43140,Delete RDS requirements that have been deleted in V1,Data Management,All
DM-1489,43139,Upload customer Controls to CBK-POC,Champions,Citi
DM-1488,43129,Provide jurisdiction count based on 5 requirements for both V1 and RDS,Researchers,Cube
DM-1486,43119,Extend the default subscription script for RDS v3,Engineering,Global Banking Group PLC
DM-1485,43116,Report Request - Location and Cross Border Requirements - V1,Researchers,Cube
DM-1483,43114,Weekly Non Compliance Report 15th January 2018,Champions,All
DM-1482,43113,Fix bug with duplicate lines in non-compliance reports,Experts,All
DM-1481,43109,Update RM>RDS sync user logic,Data Management,Cube
DM-1487,43097,NEW STATE UNDER INDIA - NEW JURISDICTION IN CUBE,Researchers,Cube
DM-1480,43094,Create use case document for self-service reporting,Data Management,Cube
DM-1479,43093,Test performance of V3 inventory import,Data Management,Cube
DM-1478,43092,Document V3 inventory import on Confluence,Data Management,Cube
DM-1477,43091,PoC data request,RDI,Citi
DM-1476,43088,Requirements Release - ATE requirements,Experts,All
DM-1475,43079,GDPR Script to Delete or Replace Rules,Champions,Citi
DM-1474,43030,Provide updated Research KPI report,Researchers,Cube
DM-1473,43026,Subscribe GBGadmin to additional roles during V3 deployment,Engineering,Global Banking Group PLC
DM-1472,43008,HSBC Release for all countries in DM,Experts,HSBC
DM-1471,43002,Report Request - 12 CFR Chapter 1,Researchers,Cube
DM-1470,42993,Activity Report - Dec,Data Management,Cube
DM-1469,42988,Map additional requirements to policies in CBK-POC,Champions,Citi
DM-1468,42984,Report showing users effected by the defect and what record codes are missing.,Customer Delivery,Citi
DM-1467,42979,Report Request - Citi POC - Search Terms,Champions,Citi
DM-1466,42978,CIti POC Report Request - Duplicate,Champions,Citi
DM-1465,42977,Report Request for 'Consent',Researchers,All
DM-1464,42970,Weekly Non Compliance Report 08th January 2018,Champions,All
DM-1463,42968,Refresh GS-POC with the latest PROD data,Customer Delivery,Goldman Saches
DM-1462,42961,"Rename ""Search term"" field to ""Citation"" in the new Leg GAP package",Researchers,All
DM-1461,42940,Weekly Non Compliance Report 02nd January 2018,Champions,All
